{
  "chef":{
    "chef_server_url"        : "https://chefserver:8443/",
    "validation_client_name" : "chef-validator",
    "validation_key_path"    : ".chef/chef-validator.pem",
    "client_key"             : ".chef/rpri905.pem",
    "node_name"              : "NodeName"
  },
  "cookbook":{
    "copyright" : "Christian Bitschnau",
    "email"     : "christian.bitschnau@arz.at",
    "license"   : "reserved"
  },
  "allowed_licenses":[],
  "raise_license_exception":false,
  "vagrant":{
    "vm":{
      "box":"trusty64",
      "forward_port":{
      },
      "network": {
        "bridged"  : false,
        "hostonly" : "33.33.33.10"
      },
      "provision" : "chef_solo"
    }
  },
  "ssl":{
    "verify" : false 
  }
}
